module gitlab.com/FireH24d

go 1.16

require (
	github.com/ardanlabs/conf v1.3.3
	github.com/dgrijalva/jwt-go v3.2.0+incompatible // indirect
	github.com/dgrijalva/jwt-go/v4 v4.0.0-preview1
	github.com/dimfeld/httptreemux/v5 v5.2.2
	github.com/dimiro1/darwin v0.0.0-20191008194338-370f81775d3b
	github.com/go-playground/locales v0.13.0
	github.com/go-playground/universal-translator v0.17.0
	github.com/google/uuid v1.3.0
	github.com/jmoiron/sqlx v1.3.4
	github.com/leodido/go-urn v1.2.1 // indirect
	github.com/lib/pq v1.10.4
	github.com/pkg/errors v0.9.1
	go.opentelemetry.io/contrib/instrumentation/net/http/otelhttp v0.26.1
	go.opentelemetry.io/otel v1.2.0 // indirect
	golang.org/x/crypto v0.0.0-20211108221036-ceb1ce70b4fa
	gopkg.in/go-playground/assert.v1 v1.2.1 // indirect
	gopkg.in/go-playground/validator.v9 v9.31.0
)
